<?xml version="1.0" encoding="UTF-8" standalone="no"?>
<svg
   xmlns:dc="http://purl.org/dc/elements/1.1/"
   xmlns:cc="http://creativecommons.org/ns#"
   xmlns:rdf="http://www.w3.org/1999/02/22-rdf-syntax-ns#"
   xmlns:svg="http://www.w3.org/2000/svg"
   xmlns="http://www.w3.org/2000/svg"
   xmlns:sodipodi="http://sodipodi.sourceforge.net/DTD/sodipodi-0.dtd"
   xmlns:inkscape="http://www.inkscape.org/namespaces/inkscape"
   width="64"
   height="64"
   version="1.1"
   viewBox="0 0 64 64"
   id="svg50"
   sodipodi:docname="veracrypt.svg"
   inkscape:version="1.0.2 (e86c870879, 2021-01-15)">
  <metadata
     id="metadata56">
    <rdf:RDF>
      <cc:Work
         rdf:about="">
        <dc:format>image/svg+xml</dc:format>
        <dc:type
           rdf:resource="http://purl.org/dc/dcmitype/StillImage" />
      </cc:Work>
    </rdf:RDF>
  </metadata>
  <defs
     id="defs54" />
  <sodipodi:namedview
     pagecolor="#ffffff"
     bordercolor="#666666"
     borderopacity="1"
     objecttolerance="10"
     gridtolerance="10"
     guidetolerance="10"
     inkscape:pageopacity="0"
     inkscape:pageshadow="2"
     inkscape:window-width="1366"
     inkscape:window-height="768"
     id="namedview52"
     showgrid="false"
     inkscape:zoom="9.125"
     inkscape:cx="32"
     inkscape:cy="31.780822"
     inkscape:window-x="0"
     inkscape:window-y="0"
     inkscape:window-maximized="1"
     inkscape:current-layer="svg50" />
  <circle
     cx="32"
     cy="32"
     r="27"
     fill="#f2f2f2"
     stroke-width="3.7796"
     style="paint-order:stroke fill markers;fill:#f2d3af;fill-opacity:1"
     id="circle2" />
  <g
     transform="matrix(.85714 0 0 .85714 4.5713 4.5716)"
     id="g48">
    <path
       d="m57.542 46h-8.5141v-4.8466l4.257-2.149z"
       fill="#2bac8f"
       id="path4" />
    <path
       d="m53.284 39.004h-8.5135l0.85191 3.7644 3.4051 3.2307z"
       fill="#2e997c"
       id="path6" />
    <path
       d="m49.029 46h-8.5141l1.7032-4.8466 2.5538-2.149z"
       fill="#278768"
       id="path8" />
    <path
       d="m40.513 32.005-3.4051-2.1646-5.109 2.1646 4.257 6.9951z"
       fill="#21674f"
       id="path10" />
    <path
       d="m44.773 39.004-4.2564-1.0823-4.257 1.0823 4.257 6.9951z"
       fill="#2a8d70"
       id="path12" />
    <path
       d="m44.773 38.998h-8.5135l2.0923-3.4383 2.1642-3.5568z"
       fill="#2f9f81"
       id="path14" />
    <path
       d="m57.542 18h-8.5135v3.7494l4.2564 3.2457z"
       fill="#96cfba"
       id="path16" />
    <path
       d="m53.284 24.995h-8.5141l0.85128-4.8616 3.4051-2.1335z"
       fill="#85c8b1"
       id="path18" />
    <path
       d="m49.029 18h-8.5135v3.7494l4.2564 3.2457z"
       fill="#6bbfa4"
       id="path20" />
    <path
       d="m44.773 24.996-4.2564 1.6004-4.257-1.6004 4.257-6.9951z"
       fill="#52b99b"
       id="path22" />
    <path
       d="m44.773 25.002h-8.5135l0.85192 3.2157 3.4051 3.7793z"
       fill="#44b799"
       id="path24" />
    <path
       d="m40.513 31.999h-8.5135l4.257-6.9951z"
       fill="#33b394"
       id="path26" />
    <path
       d="m36.256 38.999-4.2564 2.149-4.2577-2.149 4.257-6.9951z"
       fill="#2da4ad"
       id="path28" />
    <path
       d="m36.257 39.004h-8.5141l0.1362 4.5511 4.1208 2.4446z"
       fill="#2f98af"
       id="path30" />
    <path
       d="m31.997 46h-8.5141l6.3e-4 -4.8466 4.2564-2.149 2.0986 3.4479z"
       fill="#0d657a"
       id="path32" />
    <path
       d="m27.742 39.004-4.2564-1.0823-4.2577 1.0823 4.257 6.9951"
       fill="#2a69b1"
       id="path34" />
    <path
       d="m27.742 38.998h-8.5135l0.85191-4.313 3.4051-2.6821z"
       fill="#2077bc"
       id="path36" />
    <path
       d="m23.485 32.005-5.1077-2.1646-3.4064 2.1646 4.257 6.9951"
       fill="#2886c7"
       id="path38" />
    <path
       d="m23.486 31.999h-8.5141l6.3e-4 -5.3965 4.2564-1.5998z"
       fill="#238dcd"
       id="path40" />
    <path
       d="m19.253 24.981-4.2816-1.6309-4.2577 1.6309 4.2697 7.016"
       fill="#1a9cd1"
       id="path42" />
    <path
       d="m19.228 24.995h-8.5135l0.85191-3.2463 3.4051-3.7488z"
       fill="#0ea6d3"
       id="path44" />
    <path
       d="m14.972 18h-8.5135l4.257 6.9951z"
       fill="#08abd8"
       id="path46" />
  </g>
  <path
     style="opacity:0.2;fill:#f2d3af;fill-opacity:1;fill-rule:evenodd;stroke:#000000;stroke-width:0.798466"
     d="M 30.116965,58.899051 C 18.658071,58.128458 8.8125144,49.962329 5.9286405,38.836702 4.7323729,34.22165 4.7439329,29.594844 5.9632679,24.977361 7.6955158,18.417538 12.063769,12.604658 18.000075,8.9598578 24.573565,4.9238355 32.83466,3.9414631 40.243598,6.3147574 48.822896,9.0629513 55.60157,16.125955 57.977591,24.792597 c 1.979267,7.219462 0.909681,14.941488 -2.937449,21.207328 -4.6607,7.590907 -12.451779,12.301358 -21.341512,12.902982 -1.730029,0.117083 -1.784143,0.117025 -3.581665,-0.0039 z m 3.746158,-17.887896 1.785876,-2.934051 1.791939,2.959186 1.791939,2.959188 7.3242,0.0023 c 4.726142,0.0015 7.311244,-0.03576 7.287671,-0.104924 -0.02009,-0.05895 -0.82557,-1.413311 -1.789953,-3.009689 l -1.753425,-2.902506 -3.671233,-0.0082 -3.671233,-0.0082 -1.69863,-2.801387 c -0.934247,-1.540764 -1.741499,-2.891356 -1.793895,-3.001316 -0.07422,-0.155772 0.30094,-0.854472 1.69863,-3.163502 l 1.793895,-2.963577 3.661711,-0.03096 3.66171,-0.03096 1.790345,-2.936607 c 0.984689,-1.615135 1.790344,-2.95897 1.790344,-2.986302 0,-0.02733 -3.291781,-0.04782 -7.315069,-0.04553 l -7.315068,0.0042 -5.42264,8.925442 c -4.156634,6.841646 -5.451823,8.893904 -5.547632,8.790353 -0.06874,-0.0743 -2.527766,-4.09262 -5.464492,-8.929606 L 17.458612,20 h -3.660813 c -2.013447,0 -3.660813,0.03076 -3.660813,0.06836 0,0.0376 1.594971,2.688284 3.54438,5.890411 1.949409,3.202126 5.214965,8.571998 7.256793,11.933047 l 3.712413,6.111 3.713337,-0.02881 3.713338,-0.02881 z"
     id="path881" />
</svg>
